^D:\REPOSITORIES\MP2-LAB3-STACK\SRC\ANDREW BAKALIN\SLN\GOOGLETEST\MSVC\GTEST\DEBUG\GTEST\GTEST-ALL.OBJ
C:\WINDOWS\GLOBALIZATION\SORTING\SORTDEFAULT.NLS
D:\REPOSITORIES\MP2-LAB3-STACK\SRC\ANDREW BAKALIN\SLN\GOOGLETEST\MSVC\GTEST\DEBUG\GTEST\GTEST-ALL.OBJ
C:\WINDOWS\SYSTEM32\TZRES.DLL
