^D:\REPOSITORIES\MP2-LAB3-STACK\SRC\ANDREW BAKALIN\SLN\GOOGLETEST\TSTACK\EXPRESSIONS.CPP
/c /ZI /nologo /W3 /WX- /sdl /Od /Oy- /D _MBCS /Gm /EHsc /RTC1 /MTd /GS /fp:precise /Zc:wchar_t /Zc:forScope /Zc:inline /Fo"DEBUG\\" /Fd"DEBUG\VC140.PDB" /Gd /TP /analyze- D:\REPOSITORIES\MP2-LAB3-STACK\SRC\ANDREW BAKALIN\SLN\GOOGLETEST\TSTACK\EXPRESSIONS.CPP
^D:\REPOSITORIES\MP2-LAB3-STACK\SRC\ANDREW BAKALIN\SLN\GOOGLETEST\TSTACK\TEST_MAIN.CPP
/c /ZI /nologo /W3 /WX- /sdl /Od /Oy- /D _MBCS /Gm /EHsc /RTC1 /MTd /GS /fp:precise /Zc:wchar_t /Zc:forScope /Zc:inline /Fo"DEBUG\\" /Fd"DEBUG\VC140.PDB" /Gd /TP /analyze- D:\REPOSITORIES\MP2-LAB3-STACK\SRC\ANDREW BAKALIN\SLN\GOOGLETEST\TSTACK\TEST_MAIN.CPP
^D:\REPOSITORIES\MP2-LAB3-STACK\SRC\ANDREW BAKALIN\SLN\GOOGLETEST\TSTACK\TEST_TSIMPLESTACK.CPP
/c /ZI /nologo /W3 /WX- /sdl /Od /Oy- /D _MBCS /Gm /EHsc /RTC1 /MTd /GS /fp:precise /Zc:wchar_t /Zc:forScope /Zc:inline /Fo"DEBUG\\" /Fd"DEBUG\VC140.PDB" /Gd /TP /analyze- D:\REPOSITORIES\MP2-LAB3-STACK\SRC\ANDREW BAKALIN\SLN\GOOGLETEST\TSTACK\TEST_TSIMPLESTACK.CPP
^D:\REPOSITORIES\MP2-LAB3-STACK\SRC\ANDREW BAKALIN\SLN\GOOGLETEST\TSTACK\TEST_TSTACK.CPP
/c /ZI /nologo /W3 /WX- /sdl /Od /Oy- /D _MBCS /Gm /EHsc /RTC1 /MTd /GS /fp:precise /Zc:wchar_t /Zc:forScope /Zc:inline /Fo"DEBUG\\" /Fd"DEBUG\VC140.PDB" /Gd /TP /analyze- D:\REPOSITORIES\MP2-LAB3-STACK\SRC\ANDREW BAKALIN\SLN\GOOGLETEST\TSTACK\TEST_TSTACK.CPP
^D:\REPOSITORIES\MP2-LAB3-STACK\SRC\ANDREW BAKALIN\SLN\GOOGLETEST\TSTACK\TEST_EXPRESSIONS.CPP
/c /ZI /nologo /W3 /WX- /sdl /Od /Oy- /D _MBCS /Gm /EHsc /RTC1 /MTd /GS /fp:precise /Zc:wchar_t /Zc:forScope /Zc:inline /Fo"DEBUG\\" /Fd"DEBUG\VC140.PDB" /Gd /TP /analyze- D:\REPOSITORIES\MP2-LAB3-STACK\SRC\ANDREW BAKALIN\SLN\GOOGLETEST\TSTACK\TEST_EXPRESSIONS.CPP
