^D:\REPOSITORIES\MP2-LAB3-STACK\SRC\ANDREW BAKALIN\SLN\GOOGLETEST\TSTACK\DEBUG\EXPRESSIONS.OBJ|D:\REPOSITORIES\MP2-LAB3-STACK\SRC\ANDREW BAKALIN\SLN\GOOGLETEST\TSTACK\DEBUG\TEST_EXPRESSIONS.OBJ|D:\REPOSITORIES\MP2-LAB3-STACK\SRC\ANDREW BAKALIN\SLN\GOOGLETEST\TSTACK\DEBUG\TEST_MAIN.OBJ|D:\REPOSITORIES\MP2-LAB3-STACK\SRC\ANDREW BAKALIN\SLN\GOOGLETEST\TSTACK\DEBUG\TEST_TSIMPLESTACK.OBJ|D:\REPOSITORIES\MP2-LAB3-STACK\SRC\ANDREW BAKALIN\SLN\GOOGLETEST\TSTACK\DEBUG\TEST_TSTACK.OBJ
D:\REPOSITORIES\MP2-LAB3-STACK\SRC\ANDREW BAKALIN\SLN\GOOGLETEST\MSVC\DEBUG\TSTACK.ILK
D:\REPOSITORIES\MP2-LAB3-STACK\SRC\ANDREW BAKALIN\SLN\GOOGLETEST\MSVC\DEBUG\TSTACK.EXE
D:\REPOSITORIES\MP2-LAB3-STACK\SRC\ANDREW BAKALIN\SLN\GOOGLETEST\MSVC\DEBUG\TSTACK.PDB
