^D:\REPOSITORIES\MP2-LAB3-STACK\SRC\ANDREW BAKALIN\SLN\GOOGLETEST\TEST\GTEST_PROD_TEST.CC
/c /I.. /I..\INCLUDE /ZI /nologo /W3 /WX- /Od /Oy- /D WIN32 /D _DEBUG /D _CONSOLE /D _MBCS /Gm /EHsc /RTC1 /MTd /GS /fp:precise /Zc:wchar_t /Zc:forScope /Zc:inline /Fo"GTEST/DEBUG\GTEST_PROD_TEST\\" /Fd"GTEST/DEBUG\GTEST_PROD_TEST\VC140.PDB" /Gd /TP /analyze- D:\REPOSITORIES\MP2-LAB3-STACK\SRC\ANDREW BAKALIN\SLN\GOOGLETEST\TEST\GTEST_PROD_TEST.CC
^D:\REPOSITORIES\MP2-LAB3-STACK\SRC\ANDREW BAKALIN\SLN\GOOGLETEST\TEST\PRODUCTION.CC
/c /I.. /I..\INCLUDE /ZI /nologo /W3 /WX- /Od /Oy- /D WIN32 /D _DEBUG /D _CONSOLE /D _MBCS /Gm /EHsc /RTC1 /MTd /GS /fp:precise /Zc:wchar_t /Zc:forScope /Zc:inline /Fo"GTEST/DEBUG\GTEST_PROD_TEST\\" /Fd"GTEST/DEBUG\GTEST_PROD_TEST\VC140.PDB" /Gd /TP /analyze- D:\REPOSITORIES\MP2-LAB3-STACK\SRC\ANDREW BAKALIN\SLN\GOOGLETEST\TEST\PRODUCTION.CC
