^D:\REPOSITORIES\MP2-LAB3-STACK\SRC\ANDREW BAKALIN\SLN\GOOGLETEST\MSVC\GTEST\DEBUG\GTESTD.LIB|D:\REPOSITORIES\MP2-LAB3-STACK\SRC\ANDREW BAKALIN\SLN\GOOGLETEST\MSVC\GTEST\DEBUG\GTEST_MAIND.LIB|D:\REPOSITORIES\MP2-LAB3-STACK\SRC\ANDREW BAKALIN\SLN\GOOGLETEST\MSVC\GTEST\DEBUG\GTEST_PROD_TEST\GTEST_PROD_TEST.OBJ|D:\REPOSITORIES\MP2-LAB3-STACK\SRC\ANDREW BAKALIN\SLN\GOOGLETEST\MSVC\GTEST\DEBUG\GTEST_PROD_TEST\PRODUCTION.OBJ
D:\REPOSITORIES\MP2-LAB3-STACK\SRC\ANDREW BAKALIN\SLN\GOOGLETEST\MSVC\GTEST\DEBUG\GTEST_PROD_TEST.ILK
D:\REPOSITORIES\MP2-LAB3-STACK\SRC\ANDREW BAKALIN\SLN\GOOGLETEST\MSVC\GTEST\DEBUG\GTEST_PROD_TEST.EXE
D:\REPOSITORIES\MP2-LAB3-STACK\SRC\ANDREW BAKALIN\SLN\GOOGLETEST\MSVC\GTEST\DEBUG\GTEST_PROD_TEST.PDB
